<?xml version="1.0" encoding="UTF-8" standalone="no"?>
<!-- Created with Inkscape (http://www.inkscape.org/) -->

<svg
   xmlns:dc="http://purl.org/dc/elements/1.1/"
   xmlns:cc="http://creativecommons.org/ns#"
   xmlns:rdf="http://www.w3.org/1999/02/22-rdf-syntax-ns#"
   xmlns:svg="http://www.w3.org/2000/svg"
   xmlns="http://www.w3.org/2000/svg"
   xmlns:sodipodi="http://sodipodi.sourceforge.net/DTD/sodipodi-0.dtd"
   xmlns:inkscape="http://www.inkscape.org/namespaces/inkscape"
   width="128.85208mm"
   height="46.688068mm"
   viewBox="0 0 128.85208 46.688068"
   version="1.1"
   id="svg8"
   inkscape:version="0.92.4 (5da689c313, 2019-01-14)"
   sodipodi:docname="logoNavbar.svg">
  <defs
     id="defs2" />
  <sodipodi:namedview
     id="base"
     pagecolor="#ffffff"
     bordercolor="#666666"
     borderopacity="1.0"
     inkscape:pageopacity="0.0"
     inkscape:pageshadow="2"
     inkscape:zoom="0.7"
     inkscape:cx="389.34455"
     inkscape:cy="-0.12699693"
     inkscape:document-units="mm"
     inkscape:current-layer="g858"
     showgrid="false"
     fit-margin-top="0"
     fit-margin-left="0"
     fit-margin-right="0"
     fit-margin-bottom="0"
     inkscape:window-width="1366"
     inkscape:window-height="705"
     inkscape:window-x="-8"
     inkscape:window-y="-8"
     inkscape:window-maximized="1" />
  <metadata
     id="metadata5">
    <rdf:RDF>
      <cc:Work
         rdf:about="">
        <dc:format>image/svg+xml</dc:format>
        <dc:type
           rdf:resource="http://purl.org/dc/dcmitype/StillImage" />
        <dc:title></dc:title>
      </cc:Work>
    </rdf:RDF>
  </metadata>
  <g
     inkscape:label="Capa 1"
     inkscape:groupmode="layer"
     id="layer1"
     transform="translate(-1.3418167,-68.792872)">
    <g
       id="g858"
       transform="matrix(0.26458333,0,0,0.26458333,0.01890005,25.777402)">
      <path
         id="path815"
         d="m 35.759,325.642 c 0,4.269 0,7.788 0.221,9.654 0.135,1.296 0.403,2.274 1.737,2.451 0.622,0.09 1.602,0.175 2.003,0.175 0.268,0 0.356,0.14 0.356,0.27 0,0.219 -0.223,0.354 -0.713,0.354 -2.446,0 -5.251,-0.135 -5.475,-0.135 -0.221,0 -3.025,0.135 -4.362,0.135 -0.491,0 -0.712,-0.088 -0.712,-0.354 0,-0.131 0.091,-0.27 0.356,-0.27 0.399,0 0.934,-0.085 1.334,-0.175 0.892,-0.177 1.113,-1.155 1.29,-2.451 0.223,-1.866 0.223,-5.385 0.223,-9.654 v -4.677 c 0,-0.179 -0.133,-0.265 -0.268,-0.265 H 12.88 c -0.135,0 -0.268,0.042 -0.268,0.265 v 4.677 c 0,4.269 0,7.788 0.223,9.654 0.133,1.296 0.399,2.274 1.735,2.451 0.622,0.09 1.602,0.175 2.003,0.175 0.268,0 0.356,0.14 0.356,0.27 0,0.219 -0.223,0.354 -0.713,0.354 -2.45,0 -5.251,-0.135 -5.475,-0.135 -0.223,0 -3.027,0.135 -4.364,0.135 -0.489,0 -0.711,-0.088 -0.711,-0.354 0,-0.131 0.087,-0.27 0.354,-0.27 0.403,0 0.936,-0.085 1.336,-0.175 0.892,-0.177 1.113,-1.155 1.29,-2.451 0.223,-1.866 0.223,-5.385 0.223,-9.654 v -7.839 c 0,-6.941 0,-8.189 -0.087,-9.616 C 8.691,306.675 8.335,305.961 6.866,305.651 6.51,305.561 5.751,305.518 5.352,305.518 5.177,305.52 5,305.43 5,305.253 c 0,-0.265 0.223,-0.356 0.713,-0.356 2.003,0 4.806,0.131 5.03,0.131 0.223,0 3.025,-0.131 4.362,-0.131 0.489,0 0.712,0.09 0.712,0.356 0,0.177 -0.175,0.266 -0.354,0.266 -0.314,0 -0.58,0.042 -1.115,0.133 -1.2,0.225 -1.558,0.978 -1.646,2.536 -0.089,1.427 -0.089,2.675 -0.089,9.616 v 0.936 c 0,0.225 0.133,0.267 0.268,0.267 h 18.872 c 0.135,0 0.268,-0.042 0.268,-0.267 v -0.936 c 0,-6.941 0,-8.189 -0.089,-9.616 -0.093,-1.512 -0.445,-2.226 -1.914,-2.536 -0.356,-0.09 -1.111,-0.133 -1.512,-0.133 -0.181,0 -0.358,-0.089 -0.358,-0.266 0,-0.265 0.223,-0.356 0.713,-0.356 2.005,0 4.808,0.131 5.03,0.131 0.223,0 3.029,-0.131 4.362,-0.131 0.489,0 0.712,0.09 0.712,0.356 0,0.177 -0.177,0.266 -0.354,0.266 -0.312,0 -0.58,0.042 -1.113,0.133 -1.202,0.225 -1.558,0.978 -1.648,2.536 -0.089,1.427 -0.089,2.675 -0.089,9.616 v 7.838 z m 14.818,-4.763 c 0,-5.881 0,-6.944 -0.089,-8.149 -0.091,-1.288 -0.314,-1.913 -1.602,-2.093 -0.314,-0.042 -0.98,-0.085 -1.336,-0.085 -0.135,0 -0.312,-0.18 -0.312,-0.313 0,-0.225 0.177,-0.314 0.624,-0.314 1.781,0 4.315,0.088 4.539,0.088 0.268,0 8.458,0.046 9.349,0 0.757,-0.042 1.469,-0.177 1.779,-0.224 0.179,-0.04 0.356,-0.175 0.535,-0.175 0.133,0 0.179,0.175 0.179,0.357 0,0.267 -0.225,0.713 -0.314,1.779 -0.044,0.355 -0.135,2.049 -0.221,2.494 -0.044,0.179 -0.179,0.4 -0.356,0.4 -0.223,0 -0.314,-0.179 -0.314,-0.488 0,-0.27 -0.042,-0.894 -0.221,-1.337 -0.268,-0.624 -0.666,-0.887 -2.804,-1.158 -0.668,-0.088 -5.205,-0.135 -5.654,-0.135 -0.175,0 -0.221,0.135 -0.221,0.405 v 10.279 c 0,0.267 0,0.4 0.221,0.4 0.491,0 5.654,0 6.544,-0.09 0.936,-0.086 1.514,-0.133 1.914,-0.534 0.268,-0.263 0.445,-0.488 0.58,-0.488 0.133,0 0.223,0.09 0.223,0.312 0,0.223 -0.223,0.847 -0.312,2.091 -0.089,0.759 -0.179,2.182 -0.179,2.451 0,0.311 -0.091,0.711 -0.354,0.711 -0.179,0 -0.268,-0.133 -0.268,-0.356 0,-0.355 0,-0.757 -0.179,-1.246 -0.133,-0.534 -0.489,-0.98 -2.005,-1.157 -1.065,-0.132 -5.251,-0.18 -5.918,-0.18 -0.221,0 -0.268,0.138 -0.268,0.27 v 3.158 c 0,1.288 -0.044,5.7 0,6.457 0.089,2.534 0.801,3.025 4.674,3.025 1.022,0 2.892,0 3.919,-0.402 1.02,-0.443 1.556,-1.112 1.777,-2.623 0.091,-0.447 0.181,-0.58 0.401,-0.58 0.223,0 0.268,0.313 0.268,0.58 0,0.265 -0.31,2.846 -0.535,3.649 -0.266,0.978 -0.664,0.978 -2.18,0.978 -2.937,0 -5.207,-0.09 -6.809,-0.133 -1.648,-0.092 -2.671,-0.092 -3.251,-0.092 -0.089,0 -0.845,0 -1.693,0.046 -0.757,0.046 -1.644,0.088 -2.268,0.088 -0.401,0 -0.624,-0.088 -0.624,-0.31 0,-0.135 0.091,-0.314 0.312,-0.314 0.356,0 0.847,-0.133 1.2,-0.175 0.759,-0.135 0.847,-0.891 1.027,-2.003 0.223,-1.56 0.223,-4.542 0.223,-8.192 v -6.672 z M 62.73,303.961 c 0.219,0.401 0,0.532 -0.181,0.532 -0.133,0 -0.578,-0.085 -1.334,0 -2.18,0.225 -5.296,1.25 -6.765,1.874 -0.312,0.133 -0.58,0.219 -0.668,0.219 -0.089,0 -0.223,-0.086 -0.223,-0.267 0,-0.134 0.089,-0.22 0.312,-0.357 1.602,-1.111 5.742,-3.601 6.054,-3.782 0.757,-0.443 1.022,-0.576 1.246,-0.576 0.135,0 0.223,0.086 0.447,0.399 0.309,0.446 0.621,1.069 1.112,1.958 m 12.371,16.918 c 0,-5.881 0,-6.944 -0.091,-8.149 -0.089,-1.288 -0.312,-1.913 -1.602,-2.093 -0.312,-0.042 -0.98,-0.085 -1.334,-0.085 -0.135,0 -0.31,-0.18 -0.31,-0.313 0,-0.225 0.175,-0.314 0.622,-0.314 1.779,0 4.406,0.088 4.627,0.088 0.403,0 3.695,-0.088 4.897,-0.088 2.494,0 5.253,0.221 7.3,1.648 0.98,0.713 2.715,2.536 2.715,5.165 0,2.802 -1.157,5.517 -4.806,8.633 3.204,4.008 5.92,7.435 8.19,9.793 2.091,2.138 3.383,2.495 4.362,2.626 0.759,0.133 1.157,0.133 1.381,0.133 0.223,0 0.356,0.18 0.356,0.314 0,0.221 -0.221,0.31 -0.934,0.31 h -2.45 c -2.226,0 -3.206,-0.221 -4.183,-0.757 -1.691,-0.887 -3.118,-2.715 -5.344,-5.564 -1.646,-2.048 -3.381,-4.496 -4.227,-5.518 -0.179,-0.179 -0.268,-0.221 -0.535,-0.221 l -4.986,-0.089 c -0.177,0 -0.268,0.089 -0.268,0.311 v 0.887 c 0,3.653 0,6.59 0.179,8.149 0.135,1.112 0.356,1.826 1.558,2.003 0.533,0.09 1.379,0.175 1.735,0.175 0.268,0 0.314,0.18 0.314,0.314 0,0.175 -0.179,0.31 -0.624,0.31 -2.136,0 -4.631,-0.135 -4.808,-0.135 -0.044,0 -2.671,0.135 -3.871,0.135 -0.405,0 -0.624,-0.088 -0.624,-0.31 0,-0.135 0.087,-0.314 0.312,-0.314 0.354,0 0.845,-0.085 1.2,-0.175 0.759,-0.177 0.845,-0.891 1.025,-2.003 0.223,-1.56 0.223,-4.542 0.223,-8.192 v -6.674 z m 3.381,3.202 c 0,0.224 0.091,0.357 0.268,0.491 0.578,0.312 2.58,0.58 4.317,0.58 0.936,0 2.003,-0.046 2.939,-0.67 1.334,-0.891 2.359,-2.892 2.359,-5.789 0,-4.716 -2.582,-7.434 -6.767,-7.434 -1.157,0 -2.401,0.136 -2.802,0.224 -0.181,0.09 -0.314,0.225 -0.314,0.449 z m 38.233,-14.687 c 8.814,0 15.49,5.386 15.49,14.197 0,8.459 -6.274,15.446 -15.714,15.446 -10.726,0 -15.311,-8.055 -15.311,-14.863 0,-6.103 4.72,-14.78 15.535,-14.78 m 0.889,28.086 c 3.52,0 10.595,-1.868 10.595,-12.82 0,-9.082 -5.519,-13.844 -11.708,-13.844 -6.54,0 -11.261,4.096 -11.261,12.328 0,8.819 5.3,14.336 12.374,14.336 m 22.789,-16.601 c 0,-5.881 0,-6.944 -0.091,-8.149 -0.087,-1.288 -0.312,-1.913 -1.602,-2.093 -0.312,-0.042 -0.98,-0.085 -1.332,-0.085 -0.135,0 -0.314,-0.18 -0.314,-0.313 0,-0.225 0.179,-0.314 0.622,-0.314 1.783,0 4.317,0.088 4.541,0.088 0.268,0 8.458,0.046 9.347,0 0.759,-0.042 1.469,-0.177 1.781,-0.224 0.179,-0.04 0.356,-0.175 0.535,-0.175 0.133,0 0.179,0.175 0.179,0.357 0,0.267 -0.223,0.713 -0.314,1.779 -0.044,0.355 -0.135,2.049 -0.221,2.494 -0.044,0.179 -0.179,0.4 -0.356,0.4 -0.223,0 -0.314,-0.179 -0.314,-0.488 0,-0.27 -0.042,-0.894 -0.221,-1.337 -0.268,-0.624 -0.664,-0.887 -2.804,-1.158 -0.668,-0.088 -5.207,-0.135 -5.652,-0.135 -0.179,0 -0.223,0.135 -0.223,0.405 v 10.279 c 0,0.267 0,0.4 0.223,0.4 0.489,0 5.652,0 6.542,-0.09 0.936,-0.086 1.514,-0.133 1.914,-0.534 0.268,-0.263 0.447,-0.488 0.58,-0.488 0.133,0 0.223,0.09 0.223,0.312 0,0.223 -0.223,0.847 -0.314,2.091 -0.089,0.759 -0.177,2.182 -0.177,2.451 0,0.311 -0.091,0.711 -0.356,0.711 -0.177,0 -0.266,-0.133 -0.266,-0.356 0,-0.355 0,-0.757 -0.179,-1.246 -0.133,-0.534 -0.489,-0.98 -2.005,-1.157 -1.065,-0.132 -5.249,-0.18 -5.92,-0.18 -0.221,0 -0.266,0.138 -0.266,0.27 v 3.158 c 0,1.288 -0.042,5.7 0,6.457 0.091,2.534 0.801,3.025 4.674,3.025 1.025,0 2.892,0 3.921,-0.402 1.02,-0.443 1.554,-1.112 1.775,-2.623 0.091,-0.447 0.179,-0.58 0.403,-0.58 0.223,0 0.266,0.313 0.266,0.58 0,0.265 -0.31,2.846 -0.533,3.649 -0.266,0.978 -0.668,0.978 -2.18,0.978 -2.941,0 -5.209,-0.09 -6.811,-0.133 -1.646,-0.092 -2.671,-0.092 -3.251,-0.092 -0.091,0 -0.845,0 -1.691,0.046 -0.757,0.046 -1.646,0.088 -2.27,0.088 -0.399,0 -0.624,-0.088 -0.624,-0.31 0,-0.135 0.089,-0.314 0.314,-0.314 0.356,0 0.843,-0.133 1.2,-0.175 0.757,-0.135 0.845,-0.891 1.024,-2.003 0.223,-1.56 0.223,-4.542 0.223,-8.192 z m 21.229,17.134 c -0.533,-0.265 -0.58,-0.4 -0.58,-1.42 0,-1.876 0.179,-3.386 0.223,-4.01 0,-0.399 0.091,-0.62 0.312,-0.62 0.223,0 0.356,0.133 0.356,0.443 0,0.31 0,0.847 0.133,1.379 0.624,2.759 3.563,3.74 6.187,3.74 3.873,0 5.877,-2.18 5.877,-5.03 0,-2.715 -1.471,-4.006 -4.941,-6.588 l -1.779,-1.335 c -4.231,-3.162 -5.61,-5.475 -5.61,-8.103 0,-4.45 3.516,-7.121 8.681,-7.121 1.556,0 3.114,0.223 4.048,0.442 0.757,0.182 1.069,0.182 1.381,0.182 0.312,0 0.403,0.042 0.403,0.267 0,0.175 -0.179,1.423 -0.179,4.006 0,0.577 -0.046,0.845 -0.31,0.845 -0.27,0 -0.314,-0.177 -0.358,-0.491 -0.042,-0.442 -0.356,-1.469 -0.58,-1.869 -0.268,-0.443 -1.556,-1.866 -5.074,-1.866 -2.848,0 -5.207,1.423 -5.207,4.092 0,2.407 1.202,3.784 5.074,6.41 l 1.113,0.755 c 4.762,3.251 6.411,5.878 6.411,9.128 0,2.224 -0.847,4.628 -3.651,6.453 -1.648,1.066 -4.094,1.335 -6.232,1.335 -1.826,-10e-4 -4.094,-0.269 -5.698,-1.024 m 41.082,-17.134 c 0,-5.881 0,-6.944 -0.091,-8.149 -0.091,-1.288 -0.312,-1.913 -1.602,-2.093 -0.314,-0.042 -0.98,-0.085 -1.336,-0.085 -0.133,0 -0.31,-0.18 -0.31,-0.313 0,-0.225 0.177,-0.314 0.622,-0.314 1.781,0 4.319,0.088 4.541,0.088 0.445,0 2.937,-0.088 5.253,-0.088 3.917,0 11.086,-0.355 15.712,4.319 1.958,1.958 3.828,5.118 3.828,9.613 0,4.765 -2.045,8.416 -4.227,10.642 -1.695,1.733 -5.209,4.36 -11.887,4.36 -1.691,0 -3.784,-0.134 -5.473,-0.222 -1.693,-0.133 -3.027,-0.225 -3.206,-0.225 -0.089,0 -0.801,0.046 -1.604,0.046 -0.801,0.046 -1.735,0.088 -2.357,0.088 -0.403,0 -0.624,-0.088 -0.624,-0.31 0,-0.135 0.089,-0.314 0.312,-0.314 0.358,0 0.847,-0.085 1.202,-0.175 0.757,-0.177 0.845,-0.891 1.025,-2.003 0.223,-1.56 0.223,-4.542 0.223,-8.192 v -6.673 z m 3.559,4.091 c 0,4.006 0,7.524 0.046,8.237 0.042,0.936 0.131,2.315 0.445,2.714 0.489,0.713 1.87,1.517 6.497,1.517 3.609,0 6.811,-1.206 9.17,-3.428 2.049,-1.914 3.071,-5.521 3.071,-8.993 0,-4.809 -2.093,-7.88 -3.693,-9.483 -3.695,-3.74 -8.013,-4.228 -12.686,-4.228 -0.757,0 -2.003,0.135 -2.359,0.267 -0.356,0.135 -0.491,0.31 -0.491,0.757 z m 32.045,-4.091 c 0,-5.881 0,-6.944 -0.087,-8.149 -0.091,-1.288 -0.314,-1.913 -1.602,-2.093 -0.316,-0.042 -0.98,-0.085 -1.336,-0.085 -0.133,0 -0.31,-0.18 -0.31,-0.313 0,-0.225 0.177,-0.314 0.62,-0.314 1.781,0 4.317,0.088 4.541,0.088 0.266,0 8.46,0.046 9.349,0 0.757,-0.042 1.469,-0.177 1.779,-0.224 0.179,-0.04 0.356,-0.175 0.535,-0.175 0.135,0 0.177,0.175 0.177,0.357 0,0.267 -0.223,0.713 -0.312,1.779 -0.044,0.355 -0.135,2.049 -0.221,2.494 -0.046,0.179 -0.179,0.4 -0.356,0.4 -0.223,0 -0.312,-0.179 -0.312,-0.488 0,-0.27 -0.044,-0.894 -0.221,-1.337 -0.268,-0.624 -0.668,-0.887 -2.806,-1.158 -0.668,-0.088 -5.205,-0.135 -5.654,-0.135 -0.175,0 -0.223,0.135 -0.223,0.405 v 10.279 c 0,0.267 0,0.4 0.223,0.4 0.491,0 5.654,0 6.544,-0.09 0.938,-0.086 1.514,-0.133 1.916,-0.534 0.268,-0.263 0.443,-0.488 0.578,-0.488 0.133,0 0.223,0.09 0.223,0.312 0,0.223 -0.223,0.847 -0.31,2.091 -0.091,0.759 -0.181,2.182 -0.181,2.451 0,0.311 -0.089,0.711 -0.356,0.711 -0.177,0 -0.266,-0.133 -0.266,-0.356 0,-0.355 0,-0.757 -0.181,-1.246 -0.133,-0.534 -0.485,-0.98 -2.003,-1.157 -1.065,-0.132 -5.251,-0.18 -5.92,-0.18 -0.219,0 -0.268,0.138 -0.268,0.27 v 3.158 c 0,1.288 -0.042,5.7 0,6.457 0.091,2.534 0.803,3.025 4.676,3.025 1.022,0 2.892,0 3.919,-0.402 1.02,-0.443 1.554,-1.112 1.779,-2.623 0.089,-0.447 0.179,-0.58 0.403,-0.58 0.219,0 0.264,0.313 0.264,0.58 0,0.265 -0.31,2.846 -0.535,3.649 -0.266,0.978 -0.664,0.978 -2.178,0.978 -2.939,0 -5.211,-0.09 -6.813,-0.133 -1.646,-0.092 -2.669,-0.092 -3.249,-0.092 -0.087,0 -0.845,0 -1.693,0.046 -0.757,0.046 -1.646,0.088 -2.268,0.088 -0.401,0 -0.624,-0.088 -0.624,-0.31 0,-0.135 0.091,-0.314 0.314,-0.314 0.352,0 0.843,-0.133 1.2,-0.175 0.759,-0.135 0.845,-0.891 1.027,-2.003 0.219,-1.56 0.219,-4.542 0.219,-8.192 v -6.672 z m 42.55,6.764 c 0,5.564 0.091,7.836 0.803,8.5 0.624,0.622 2.136,0.891 5.207,0.891 2.047,0 3.782,-0.046 4.72,-1.159 0.489,-0.58 0.799,-1.377 0.932,-2.134 0.046,-0.27 0.179,-0.489 0.403,-0.489 0.179,0 0.266,0.177 0.266,0.578 0,0.4 -0.266,2.67 -0.578,3.782 -0.268,0.891 -0.401,1.024 -2.492,1.024 -2.806,0 -4.986,-0.042 -6.811,-0.133 -1.781,-0.046 -3.116,-0.092 -4.275,-0.092 -0.175,0 -0.843,0 -1.602,0.046 -0.799,0.046 -1.646,0.088 -2.268,0.088 -0.401,0 -0.624,-0.088 -0.624,-0.31 0,-0.135 0.091,-0.314 0.31,-0.314 0.356,0 0.845,-0.085 1.204,-0.175 0.755,-0.177 0.845,-0.891 1.022,-2.003 0.223,-1.56 0.223,-4.542 0.223,-8.192 v -6.674 c 0,-5.881 0,-6.944 -0.087,-8.149 -0.091,-1.288 -0.314,-1.913 -1.606,-2.093 -0.31,-0.042 -0.976,-0.085 -1.335,-0.085 -0.131,0 -0.312,-0.18 -0.312,-0.313 0,-0.225 0.181,-0.314 0.624,-0.314 1.781,0 4.231,0.088 4.45,0.088 0.179,0 3.116,-0.088 4.317,-0.088 0.401,0 0.624,0.088 0.624,0.314 0,0.133 -0.177,0.263 -0.31,0.263 -0.268,0 -0.847,0.049 -1.292,0.091 -1.157,0.223 -1.379,0.801 -1.469,2.136 -0.044,1.205 -0.044,2.268 -0.044,8.149 z m 26.617,-16.959 c 0.489,-1.246 0.664,-1.469 0.934,-1.469 0.401,0 0.533,0.535 0.934,1.379 0.715,1.602 6.99,17.226 9.392,22.969 1.427,3.38 2.494,3.875 3.339,4.139 0.58,0.179 1.159,0.221 1.558,0.221 0.223,0 0.491,0.09 0.491,0.314 0,0.221 -0.447,0.31 -0.89,0.31 -0.58,0 -3.474,0 -6.187,-0.088 -0.759,-0.046 -1.379,-0.046 -1.379,-0.265 0,-0.18 0.087,-0.18 0.266,-0.27 0.221,-0.085 0.624,-0.398 0.354,-1.02 l -3.516,-8.683 C 312.682,328.046 312.638,328 312.415,328 h -9.035 c -0.177,0 -0.314,0.086 -0.401,0.312 l -2.226,6.057 c -0.356,0.93 -0.58,1.865 -0.58,2.536 0,0.757 0.668,1.02 1.336,1.02 h 0.356 c 0.31,0 0.401,0.14 0.401,0.314 0,0.221 -0.221,0.31 -0.582,0.31 -0.932,0 -3.069,-0.135 -3.514,-0.135 -0.399,0 -2.359,0.135 -3.961,0.135 -0.489,0 -0.755,-0.088 -0.755,-0.31 0,-0.175 0.175,-0.314 0.356,-0.314 0.266,0 0.845,-0.042 1.155,-0.085 1.779,-0.225 2.54,-1.56 3.295,-3.471 z m 4.36,15.755 c 0.181,0 0.181,-0.086 0.137,-0.265 l -3.875,-10.373 c -0.223,-0.578 -0.443,-0.578 -0.666,0 l -3.651,10.373 c -0.046,0.179 0,0.265 0.133,0.265 z m 32.937,-8.635 c 0,-6.941 0,-8.189 -0.091,-9.616 -0.087,-1.512 -0.445,-2.226 -1.914,-2.536 -0.354,-0.09 -1.111,-0.133 -1.516,-0.133 -0.175,0 -0.352,-0.089 -0.352,-0.266 0,-0.265 0.219,-0.356 0.713,-0.356 2.003,0 4.672,0.131 5.028,0.131 0.98,0 3.561,-0.131 5.608,-0.131 5.567,0 7.57,1.869 8.283,2.536 0.976,0.935 2.222,2.939 2.222,5.296 0,6.319 -4.627,10.597 -10.948,10.597 -0.223,0 -0.715,0 -0.936,-0.048 -0.223,0 -0.487,-0.085 -0.487,-0.31 0,-0.357 0.264,-0.399 1.2,-0.399 4.317,0 7.699,-3.16 7.699,-7.256 0,-1.471 -0.133,-4.45 -2.492,-6.853 -2.359,-2.408 -5.074,-2.226 -6.097,-2.226 -0.757,0 -1.512,0.085 -1.916,0.265 -0.266,0.086 -0.356,0.401 -0.356,0.847 v 18.296 c 0,4.269 0,7.788 0.223,9.654 0.133,1.296 0.403,2.274 1.739,2.451 0.618,0.09 1.6,0.175 2.003,0.175 0.268,0 0.352,0.14 0.352,0.27 0,0.219 -0.219,0.354 -0.708,0.354 -2.45,0 -5.255,-0.135 -5.479,-0.135 -0.133,0 -2.935,0.135 -4.271,0.135 -0.489,0 -0.713,-0.088 -0.713,-0.354 0,-0.131 0.091,-0.27 0.358,-0.27 0.399,0 0.932,-0.085 1.335,-0.175 0.89,-0.177 1.113,-1.155 1.288,-2.451 0.225,-1.866 0.225,-5.385 0.225,-9.654 z m 31.288,-7.12 c 0.489,-1.246 0.67,-1.469 0.936,-1.469 0.399,0 0.531,0.535 0.934,1.379 0.712,1.602 6.988,17.226 9.392,22.969 1.423,3.38 2.492,3.875 3.337,4.139 0.582,0.179 1.157,0.221 1.56,0.221 0.219,0 0.489,0.09 0.489,0.314 0,0.221 -0.445,0.31 -0.892,0.31 -0.576,0 -3.472,0 -6.187,-0.088 -0.757,-0.046 -1.379,-0.046 -1.379,-0.265 0,-0.18 0.089,-0.18 0.266,-0.27 0.223,-0.085 0.624,-0.398 0.356,-1.02 l -3.514,-8.683 C 381.267,328.046 381.223,328 381.002,328 h -9.037 c -0.175,0 -0.312,0.086 -0.399,0.312 l -2.226,6.057 c -0.356,0.93 -0.578,1.865 -0.578,2.536 0,0.757 0.664,1.02 1.334,1.02 h 0.356 c 0.31,0 0.401,0.14 0.401,0.314 0,0.221 -0.223,0.31 -0.58,0.31 -0.934,0 -3.071,-0.135 -3.516,-0.135 -0.403,0 -2.359,0.135 -3.961,0.135 -0.489,0 -0.757,-0.088 -0.757,-0.31 0,-0.175 0.177,-0.314 0.356,-0.314 0.268,0 0.843,-0.042 1.157,-0.085 1.779,-0.225 2.538,-1.56 3.295,-3.471 z m 4.362,15.755 c 0.179,0 0.179,-0.086 0.135,-0.265 l -3.873,-10.373 c -0.225,-0.578 -0.445,-0.578 -0.668,0 l -3.649,10.373 c -0.044,0.179 0,0.265 0.131,0.265 z m 23.143,1.114 c 0,3.649 0,6.632 0.179,8.192 0.133,1.112 0.314,1.826 1.514,2.003 0.533,0.09 1.425,0.175 1.781,0.175 0.266,0 0.31,0.18 0.31,0.314 0,0.175 -0.177,0.31 -0.622,0.31 -2.136,0 -4.631,-0.135 -4.853,-0.135 -0.179,0 -2.894,0.135 -4.052,0.135 -0.445,0 -0.622,-0.088 -0.622,-0.31 0,-0.135 0.089,-0.266 0.312,-0.266 0.352,0 0.801,-0.09 1.157,-0.181 0.799,-0.177 1.024,-0.934 1.155,-2.045 0.181,-1.56 0.181,-4.542 0.181,-8.192 v -15.891 l -5.654,0.088 c -2.45,0.044 -3.383,0.313 -3.963,1.202 -0.445,0.668 -0.489,0.934 -0.622,1.204 -0.089,0.31 -0.223,0.356 -0.401,0.356 -0.089,0 -0.268,-0.088 -0.268,-0.314 0,-0.399 0.755,-3.785 0.845,-4.094 0.046,-0.223 0.27,-0.711 0.399,-0.711 0.272,0 0.67,0.312 1.739,0.443 1.115,0.135 2.627,0.177 3.069,0.177 h 14.78 c 1.29,0 2.184,-0.088 2.806,-0.177 0.576,-0.087 0.934,-0.18 1.111,-0.18 0.179,0 0.179,0.224 0.179,0.447 0,1.155 -0.135,3.872 -0.135,4.319 0,0.31 -0.179,0.489 -0.356,0.489 -0.177,0 -0.266,-0.134 -0.308,-0.668 l -0.048,-0.403 c -0.135,-1.155 -0.978,-2.001 -4.718,-2.091 l -4.897,-0.088 v 15.892 z m 18.606,-6.674 c 0,-5.881 0,-6.944 -0.091,-8.149 -0.091,-1.288 -0.314,-1.913 -1.604,-2.093 -0.312,-0.042 -0.978,-0.085 -1.334,-0.085 -0.135,0 -0.314,-0.18 -0.314,-0.313 0,-0.225 0.179,-0.314 0.624,-0.314 1.781,0 4.408,0.088 4.629,0.088 0.401,0 3.695,-0.088 4.899,-0.088 2.492,0 5.249,0.221 7.298,1.648 0.98,0.713 2.717,2.536 2.717,5.165 0,2.802 -1.161,5.517 -4.808,8.633 3.206,4.008 5.922,7.435 8.19,9.793 2.093,2.138 3.381,2.495 4.362,2.626 0.759,0.133 1.159,0.133 1.383,0.133 0.219,0 0.352,0.18 0.352,0.314 0,0.221 -0.219,0.31 -0.932,0.31 h -2.45 c -2.226,0 -3.204,-0.221 -4.185,-0.757 -1.693,-0.887 -3.116,-2.715 -5.342,-5.564 -1.644,-2.048 -3.379,-4.496 -4.227,-5.518 -0.179,-0.179 -0.27,-0.221 -0.533,-0.221 l -4.988,-0.089 c -0.177,0 -0.266,0.089 -0.266,0.311 v 0.887 c 0,3.653 0,6.59 0.179,8.149 0.129,1.112 0.354,1.826 1.556,2.003 0.533,0.09 1.379,0.175 1.735,0.175 0.268,0 0.314,0.18 0.314,0.314 0,0.175 -0.179,0.31 -0.624,0.31 -2.138,0 -4.631,-0.135 -4.807,-0.135 -0.046,0 -2.673,0.135 -3.875,0.135 -0.401,0 -0.624,-0.088 -0.624,-0.31 0,-0.135 0.091,-0.314 0.314,-0.314 0.356,0 0.845,-0.085 1.2,-0.175 0.755,-0.177 0.845,-0.891 1.025,-2.003 0.225,-1.56 0.225,-4.542 0.225,-8.192 v -6.674 z m 3.381,3.202 c 0,0.224 0.089,0.357 0.266,0.491 0.58,0.312 2.582,0.58 4.317,0.58 0.934,0 2.003,-0.046 2.941,-0.67 1.334,-0.891 2.359,-2.892 2.359,-5.789 0,-4.716 -2.584,-7.434 -6.769,-7.434 -1.155,0 -2.401,0.136 -2.806,0.224 -0.175,0.09 -0.308,0.225 -0.308,0.449 z m 30.083,3.472 c 0,3.649 0,6.632 0.181,8.192 0.135,1.112 0.27,1.826 1.425,2.003 0.58,0.09 1.425,0.175 1.781,0.175 0.221,0 0.31,0.18 0.31,0.314 0,0.175 -0.177,0.31 -0.624,0.31 -2.18,0 -4.716,-0.135 -4.893,-0.135 -0.223,0 -2.673,0.135 -3.875,0.135 -0.401,0 -0.624,-0.088 -0.624,-0.31 0,-0.135 0.091,-0.314 0.312,-0.314 0.356,0 0.843,-0.085 1.2,-0.175 0.761,-0.177 0.894,-0.891 1.025,-2.003 0.181,-1.56 0.223,-4.542 0.223,-8.192 v -6.674 c 0,-5.881 0,-6.944 -0.087,-8.149 -0.091,-1.288 -0.401,-1.866 -1.248,-2.045 -0.445,-0.09 -0.934,-0.133 -1.202,-0.133 -0.181,0 -0.312,-0.18 -0.312,-0.313 0,-0.225 0.179,-0.314 0.622,-0.314 1.292,0 3.742,0.088 3.965,0.088 0.177,0 2.713,-0.088 3.915,-0.088 0.447,0 0.622,0.088 0.622,0.314 0,0.133 -0.175,0.313 -0.308,0.313 -0.272,0 -0.537,0 -0.98,0.085 -1.071,0.227 -1.292,0.759 -1.383,2.093 -0.046,1.205 -0.046,2.268 -0.046,8.149 v 6.674 z m 19.721,-16.869 c 0.489,-1.246 0.666,-1.469 0.932,-1.469 0.403,0 0.537,0.535 0.936,1.379 0.715,1.602 6.986,17.226 9.392,22.969 1.423,3.38 2.494,3.875 3.337,4.139 0.582,0.179 1.157,0.221 1.556,0.221 0.225,0 0.491,0.09 0.491,0.314 0,0.221 -0.445,0.31 -0.89,0.31 -0.576,0 -3.47,0 -6.185,-0.088 -0.757,-0.046 -1.381,-0.046 -1.381,-0.265 0,-0.18 0.091,-0.18 0.268,-0.27 0.223,-0.085 0.624,-0.398 0.356,-1.02 l -3.516,-8.683 C 480.563,328.046 480.517,328 480.296,328 h -9.035 c -0.179,0 -0.312,0.086 -0.403,0.312 l -2.226,6.057 c -0.354,0.93 -0.576,1.865 -0.576,2.536 0,0.757 0.666,1.02 1.336,1.02 h 0.352 c 0.312,0 0.403,0.14 0.403,0.314 0,0.221 -0.221,0.31 -0.578,0.31 -0.938,0 -3.071,-0.135 -3.52,-0.135 -0.398,0 -2.357,0.135 -3.961,0.135 -0.489,0 -0.755,-0.088 -0.755,-0.31 0,-0.175 0.179,-0.314 0.356,-0.314 0.27,0 0.845,-0.042 1.159,-0.085 1.777,-0.225 2.534,-1.56 3.291,-3.471 z m 4.362,15.755 c 0.175,0 0.175,-0.086 0.133,-0.265 l -3.871,-10.373 c -0.225,-0.578 -0.449,-0.578 -0.67,0 l -3.649,10.373 c -0.046,0.179 0,0.265 0.133,0.265 z"
         inkscape:connector-curvature="0"
         style="fill:#706f6f" />
      <polygon
         id="polygon817"
         points="127.798,267.996 136.541,267.996 136.541,269.861 127.798,269.861 127.798,277.521 125.706,277.521 125.706,260.715 136.718,260.715 136.718,262.58 127.798,262.58 "
         style="fill:#706f6f" />
      <path
         id="path819"
         d="m 149.164,270.995 v -10.279 h 2.117 v 10.229 c 0,3.074 1.636,5.014 4.736,5.014 3.1,0 4.762,-1.94 4.762,-5.014 v -10.229 h 2.117 v 10.254 c 0,4.183 -2.319,6.855 -6.88,6.855 -4.534,-10e-4 -6.852,-2.697 -6.852,-6.83"
         inkscape:connector-curvature="0"
         style="fill:#706f6f" />
      <polygon
         id="polygon821"
         points="178.542,260.715 188.217,273.842 188.217,260.715 190.309,260.715 190.309,277.521 188.294,277.521 178.492,264.116 178.492,277.521 176.4,277.521 176.4,260.715 "
         style="fill:#706f6f" />
      <path
         id="path823"
         d="m 203.814,277.521 v -16.805 h 5.744 c 5.241,0 8.619,3.653 8.619,8.415 0,4.787 -3.377,8.39 -8.619,8.39 z m 12.196,-8.39 c 0,-3.628 -2.293,-6.551 -6.451,-6.551 h -3.653 v 13.077 h 3.653 c 4.082,-10e-4 6.451,-2.924 6.451,-6.526"
         inkscape:connector-curvature="0"
         style="fill:#706f6f" />
      <path
         id="path825"
         d="m 242.088,277.522 -1.487,-3.755 h -8.365 l -1.485,3.755 h -2.395 l 6.779,-16.807 h 2.594 l 6.753,16.807 z m -5.67,-14.666 -3.553,9.072 h 7.131 z"
         inkscape:connector-curvature="0"
         style="fill:#706f6f" />
      <path
         id="path827"
         d="m 254.636,269.131 c 0,-5.165 3.804,-8.693 8.643,-8.693 2.973,0 5.038,1.411 6.374,3.325 l -1.739,0.985 c -0.956,-1.437 -2.721,-2.445 -4.635,-2.445 -3.679,0 -6.475,2.797 -6.475,6.828 0,3.981 2.796,6.829 6.475,6.829 1.914,0 3.679,-1.034 4.635,-2.445 l 1.765,0.958 c -1.413,1.94 -3.428,3.351 -6.401,3.351 -4.838,0 -8.642,-3.528 -8.642,-8.693"
         inkscape:connector-curvature="0"
         style="fill:#706f6f" />
      <rect
         id="rect829"
         height="16.806999"
         width="2.0910001"
         y="260.715"
         x="281.922"
         style="fill:#706f6f" />
      <path
         id="path831"
         d="m 296.839,269.132 c 0,-4.964 3.377,-8.693 8.339,-8.693 4.966,0 8.367,3.729 8.367,8.693 0,4.963 -3.402,8.693 -8.367,8.693 -4.961,-10e-4 -8.339,-3.73 -8.339,-8.693 m 14.538,0 c 0,-3.931 -2.444,-6.829 -6.199,-6.829 -3.778,0 -6.171,2.898 -6.171,6.829 0,3.905 2.393,6.828 6.171,6.828 3.756,-10e-4 6.199,-2.924 6.199,-6.828 m -6.374,-9.954 h -1.437 l 3.73,-3.628 h 1.966 z"
         inkscape:connector-curvature="0"
         style="fill:#706f6f" />
      <polygon
         id="polygon833"
         points="328.51,260.715 338.185,273.842 338.185,260.715 340.277,260.715 340.277,277.521 338.262,277.521 328.46,264.116 328.46,277.521 326.368,277.521 326.368,260.715 "
         style="fill:#706f6f" />
      <path
         id="path835"
         d="m 273.86,183.36 c 5.209,-1.789 -2.975,-1.594 -12.028,-1.091 8.011,-1.9 20.24,-3.717 40.588,-4.653 0,0 -35.729,0.615 -57.809,-3.537 8.011,-0.897 15.637,-0.843 15.637,-0.843 0,0 -23.453,-2.667 -14.995,-3.665 9.975,-1.171 -19.145,-2.752 -36.747,-6.127 0,0 0.028,0.056 0.07,0.137 -15.957,-2.484 -28.42,0.1 -36.779,2.829 -12.28,4.008 -21.448,10.374 -21.448,10.374 l 29.57,25.558 c 0,0 26.381,-19.648 45.034,-15.595 13.405,2.913 17.266,2.349 22.155,0.476 1.449,0.805 3.557,1.717 6.652,2.741 13.981,4.615 25.236,3.311 25.236,3.311 0,0 -14.592,-6.664 -5.136,-9.915"
         inkscape:connector-curvature="0"
         style="fill:#ededed" />
      <path
         id="path837"
         d="m 346.65,204.657 c -19.403,-7.566 -53.107,5.404 -41.145,-1.604 1.435,-0.841 0.386,-1.285 -2.337,-1.483 4.595,-3.307 9.677,-5.9 17.763,-5.489 -6.823,-2.387 -18.127,3.428 -33.611,1.821 1.902,-1.31 3.74,-2.522 6.117,-3.043 5.068,-1.112 -17.819,1.408 -12.284,-0.713 7.208,-2.766 -4.507,-0.489 -20.1,-4.291 -25.88,-8.531 -43.446,-5.969 -55.716,-1.965 -13.963,4.56 -27.358,12.826 -27.358,12.826 l 33.627,29.064 c 0,0 19.459,-14.484 38.116,-17.717 18.572,-0.791 18.938,2.677 32.536,3.528 10.565,0.662 33.482,-5.785 29.576,-4.973 -7.204,1.495 -11.06,0.984 -12.582,-0.097 13.193,-2.208 29.684,-11.457 47.398,-5.864"
         inkscape:connector-curvature="0"
         style="fill:#9cc6ea" />
    </g>
  </g>
</svg>
